Czasy sortowania tablicy o rozmiarze: 10000
0.00182467
0.00167933
0.001718
0.00160033
0.001225
0.000862667
0.000646333
0.000594667
Czasy sortowania tablicy o rozmiarze: 50000
0.0120367
0.011368
0.011168
0.0102267
0.007904
0.006231
0.00498
0.00349567
Czasy sortowania tablicy o rozmiarze: 100000
0.0262147
0.026501
0.02683
0.0222797
0.018572
0.0144773
0.0124123
0.00718667
Czasy sortowania tablicy o rozmiarze: 500000
0.179197
0.206492
0.15816
0.141667
0.117074
0.0925483
0.081203
0.043202
Czasy sortowania tablicy o rozmiarze: 1000000
0.385152
0.383007
0.349014
0.322871
0.26898
0.211516
0.181619
0.089825
